<?xml version="1.0" encoding="utf-8"?>
<!-- Generator: Adobe Illustrator 17.0.0, SVG Export Plug-In . SVG Version: 6.00 Build 0)  -->
<!DOCTYPE svg PUBLIC "-//W3C//DTD SVG 1.1//EN" "http://www.w3.org/Graphics/SVG/1.1/DTD/svg11.dtd">
<svg version="1.1" id="Layer_1" xmlns="http://www.w3.org/2000/svg" xmlns:xlink="http://www.w3.org/1999/xlink" x="0px" y="0px"
	 width="340px" height="100px" viewBox="0 0 340 100" enable-background="new 0 0 340 100" xml:space="preserve">
<g>
	<g>
		<g>
			<path fill="#393939" d="M11.309,97.376c1.234,0.989,2.843,0.695,4.39,0.51C14.253,97.006,12.894,96.815,11.309,97.376z"/>
			<polygon fill="#393939" points="15.735,97.905 15.754,97.882 15.699,97.886 			"/>
			<path fill="#393939" d="M331.094,41.591c-1.191-2.16-2.761-4.405-4.435-6.3C328.208,37.147,329.737,39.331,331.094,41.591z"/>
			<path fill="#393939" d="M89.513,95.298l-0.017-2.121c3.623-0.478,1.335,2.265,4.619,1.334c0.985-3.126,5.589-0.381,6.58-2.101
				c-0.004,0.226,1.648,0.14,1.635,1.092c0.347-1.656,1.655-0.526,2.652-1.03c0.334-0.482-0.321-0.458-0.648-0.918l2.329-0.783
				c0.978,0.435,1.29,1.364,0.296,1.63c3.136,0.064,12.16-0.434,21.254-0.455c9.082-0.283,18.215-0.222,21.556-0.71
				c-0.885-1.202-2.936-0.326-3.771-2.23c1.753-1.121,2.625,0.314,3.386-0.838c0.733,2.844,3.921,0.589,5.295,3.454l0.492-1.634
				l0.889,0.97c7.787-1.65,1.781-0.816,8.689-0.379c3.997-0.214,5.941-2.447,8.16-1.601c-0.331-0.019-1.198-1.019-0.149-1.424
				c0.147,1.425,2.796-1.009,3.269,0.478c1.023-0.136,4.319,0.186,3.26-1.806c0.534,0.994,3.466,1.516,1.684,2.285
				c0.991,0.099,1.942,0.426,2.672,0.025l-1.255-0.595c3.371-0.142,5.129,1.439,7.397-0.23l-1.206-0.824
				c2.016-0.04,3.709-0.116,4.395,1.838l-2.089,0.507c3.329,0.046,5.327,0.167,8.161-0.675l-0.986-0.127
				c1.822-0.827,7.387-1.29,12.954-1.818c5.554-0.414,11.1-0.766,12.865-1.803l-1.358-1.649l2.955-0.946
				c-0.336-0.055-1.867,4.678-2.093,4.163c1.506,0.145,4.607,0.324,8.48,0.705c3.867,0.451,8.517,0.992,13.152,1.532
				c9.265,1.157,35.45-2.601,38.127-1.688c2.078,1.203-0.014,2.403-0.078,2.632c2.788-0.056,1.437-1.334,3.698-0.743
				c0.574,0.396-0.34,1.124-0.727,1.26c1.03,0.037,1.861,0.74,2.064,0.071c-1.15-0.795-0.286-2.504-0.6-3.799l2.918,0.779
				l-0.347,1.121c0.647,0.172,2.261-2.789,5.046-1.561c2.398,0.763,4.944,1.322,7.501,1.854c2.547,0.574,5.087,1.199,7.501,1.921
				c-0.229,0.665-1.343,0.817-2.455,0.966c0.645,0.196,1.679,0.265,2.171,0.905c-0.907-1.497,2.225-0.301,1.42-1.036
				c2.101-0.953,4.174-11.577,6.163-11.034c0.995,0.271,1.969,0.567,2.922,0.726c0.462,0.077,0.978,0.131,1.379,0.109
				c0.315-0.04,0.576-0.142,0.833-0.32c0.197-0.605,1.209-3.521,2.898-7.477c1.701-3.942,4.168-20.008,7.651-24.409
				c3.428-4.426-20.348-8.059-15.825-9.766c4.466-1.806,8.361-1.969,8.906-2.463c1.732,2.101,3.369,4.75,4.415,7.068
				c1.079,2.308,1.604,4.283,1.782,5.209c0.097-0.846-0.698-4.321-2.674-7.907c-1.948-3.626-4.788-6.686-6.796-8.214l-1.64,0.704
				c-1.085-0.851-1.858-1.378-2.447-1.788c-0.577-0.417-0.986-0.713-1.314-0.95c-0.574-0.446-0.717-0.69-0.848-0.947
				c-0.117-0.244-0.284-0.551-0.768-0.959c-0.494-0.414-1.445-1.044-2.979-1.726c0.121-0.659,1.537-0.527,3.975,0.581
				c2.428,1.138,6.145,3.448,9.768,7.564c-3.119-3.733-6.123-6.218-8.413-7.743c-2.342-1.54-4.046-2.168-5.248-1.919
				c-1.94-1.147,26.794-1.425,26.934-1.821c0.189-0.352,0.119-0.872-1.954-1.898c-1.557-0.325-3.238-0.367-4.536-0.419
				c-0.943,0.054-1.876-0.043-2.628-0.636l0.085-0.222c-3.793-2.358-6.735,0.433-10.174-1.819l0.501-0.338
				c-1.159-1.082-3.99-0.705-6.208-2.099c0.627,0.431,1.015,1.524-0.453,1.328c-2.579-1.472-4.645,10.071-6.456,8.608l-2.197,0.877
				c-2.392-0.569-6.584-1.381-11.674-2.303c-5.112-0.792-11.135,3.925-17.15,3.097c-6.013-0.844-29.137-1.299-34.268-1.871
				c-5.132-0.576-9.382-0.885-11.832-1.076l0.405-0.167c-3.741-0.241-8.453-0.633-13.661-1.08
				c-5.215-0.361-10.936-0.628-16.666-0.93c-5.727-0.372-11.491-0.266-16.773-0.28c-2.642,0.018-5.167,0.061-7.513,0.136
				c-2.347,0.117-4.517,0.317-6.447,0.519c-2.367-1.315-5.667-1.039-8.157-1.422c1.385,0.551,0.906,1.464-0.173,1.402
				c-7.576-0.179-0.515,0.814-8.159,1.454c-2.198,0.353-5.949,0.582-10.463,0.715c-2.258,0.042-4.706,0.086-7.247,0.133
				c-2.539,0.083-5.17,0.169-7.794,0.254c-5.247,0.172-10.482,0.112-14.883,0.273c-4.402,0.13-7.99,0.16-9.965,0.062
				c-2.012,1.138-4.351,1.467-6.69,1.708c-2.334,0.278-4.663,0.532-6.642,1.375l0.363-0.498
				c-2.151,0.666-9.497-12.654-16.909-11.825c-7.402,0.895-14.91,1.794-17.394,2.548l0.725,0.153
				c-4.219,1.981-3.951-0.17-7.545-0.15c0.816,2.019-2.745,3.935-4.149,4.369l-0.028-0.47c-2.101,0.806-6.68-4.849-10.153-3.721
				l-0.088-1.178c-2.715,1.9-8.37,2.646-10.471,3.248C19.542,22.201,11.62,22.2,5.523,25.405l-4.99-2.13L0,23.756
				c0,0,0.801,35.079,3.001,45.991C5.189,80.67,8.73,92.322,13.724,95.444l0.158,1.162l1.526-0.555
				c2.012,0.067,2.557-1.473,2.706-0.309l-2.601,0.534c1.964-0.165,0.797,0.778,0.24,1.606c0.811-0.096,1.606-0.159,2.314,0.024
				c0.263-0.532-0.387-0.398-0.74-0.568c0.911-0.663,2.063-2.097,3.421-1.898c1.951-0.398,0.562,1.803,2.832,1.339
				c12.047-2.135,23.819,4.946,35.858,2.469c0.356,0.424,0.026,0.47-0.285,0.751c3.549-1.205,6.808-1.655,10.067-2.648
				c1.005,0.371,1.365,1.042,1.711,1.479c-0.348-0.436,4.205-1.418,8.891-2.271c2.339-0.451,4.719-0.807,6.54-0.992
				C88.181,95.357,89.43,95.244,89.513,95.298z"/>
		</g>
		<g>
			<path fill="#393939" d="M88.134,39.197c-0.43,0.239-1.01-0.481-0.915-0.877c-0.729,1.164-0.994,0.063-0.699,1.969
				c-0.398,1.047-1.327-0.1-0.81-1.004l-1.484,1.506l1.106,0.08c0.069,1.621-1.768-0.129-1.683,1.76l1.844-0.535l0.022,0.538
				c0.302-0.646,1.186-0.581,1.523-0.422c0.012,0.267,0.133,0.68-0.187,0.793c2.291-0.342,0.005-2.861,1.78-3.766
				C88.522,39.302,88.371,39.31,88.134,39.197z"/>
			<path fill="#393939" d="M90.891,42.636l0.371-2.126l1.435,0.236c-0.128-0.682,0.727-1.428-0.055-1.892
				c-0.106,0.132-0.317,0.386-0.535,0.366c-0.16-1.497,1.619-1.094,0.918-2.499c-0.976,0.605-1.206,0.316-1.604,1.64
				c-0.996,0.06-1.772-0.133-2.34-0.575c-0.24,0.281-0.086,1.187-0.412,1.44c0.076-0.039,0.145-0.076,0.235-0.107l0.516,2.195
				c0.202-0.527,0.536-0.365,0.862-0.48l-0.994,2.89c0.947,1.96,2.2,0.44,2.989,1.174C91.131,43.196,92.683,43.855,90.891,42.636z"
				/>
			<path fill="#393939" d="M88.669,39.227l-0.037,0.013L88.669,39.227z"/>
			<path fill="#393939" d="M207.052,14.53c0.347-0.039,0.454-0.57,0.506-0.838l-3.915,0.022c0.123,0.592,1.246,1.33,0.494,1.679
				c0.334,0.656,1.354,0.101,1.507-0.696l-0.287,0.9c0.906-1.151,1.506,1.122,0.917,1.801l0.076-0.012l2.527-4.433
				C207.96,12.69,208.155,14.48,207.052,14.53z"/>
			<path fill="#393939" d="M303.752,17.279c-0.53,0.131-0.624,0.335-0.6,0.559C303.355,17.7,303.554,17.536,303.752,17.279z"/>
			<path fill="#393939" d="M209.473,11.914l0.803-1.386C209.956,10.901,209.673,11.4,209.473,11.914z"/>
			<path fill="#393939" d="M204.001,33.047c-0.001,0.073-0.01,0.139,0.01,0.238l0.341-0.709h-0.009
				C204.217,32.732,204.105,32.888,204.001,33.047z"/>
			<path fill="#393939" d="M227.515,7.134c0.088-0.028,0.157-0.05,0.264-0.084C227.684,7.055,227.597,7.089,227.515,7.134z"/>
			<path fill="#393939" d="M193.905,41.078l1.636-1.367c-0.212,0.637,0.585,0.433,0.246,1.178c0.125-0.103,0.713-0.365,0.548-0.688
				l-0.338,0.046c0.851-1.86,0.31-2.56,1.754-3.992c-0.919-1.08-1.306-0.069-1.774,0.779c-0.161,0.132-0.296,0.191-0.433,0.263
				l-1.342,2.604L193.905,41.078z"/>
			<path fill="#393939" d="M278.693,30.25l-0.034,0.141C278.681,30.343,278.689,30.296,278.693,30.25z"/>
			<path fill="#393939" d="M278.521,30.973l0.138-0.581C278.536,30.675,278.158,30.924,278.521,30.973z"/>
			<path fill="#393939" d="M209.171,13.108c0.028-0.343,0.133-0.762,0.301-1.194l-0.596,1.04
				C208.959,12.975,209.068,13.048,209.171,13.108z"/>
			<path fill="#393939" d="M207.808,17.132l-1.459,0.255l-0.541,0.955C206.366,17.983,207.018,17.738,207.808,17.132z"/>
			<path fill="#393939" d="M225.214,5.962c3.09-0.196-0.843,2.149,0.55,2.712c0.862-0.236,1.205-1.241,1.751-1.54
				c-2.476,0.769,0.477-3.397-2.015-2.929c0.425-1.863,1.87-1.977,2.688-1.42c0.87,1.844-0.889,1.273-1.177,3.023
				c1.001-0.242,0.841-0.578,1.306-1.558c1.533,0.495,3.332-2.044,4.135,0.493c1.147-0.339,1.119-1.201,1.82-2.114
				c0.235-1.914-1.628-1.094-1.971-2.628c0.079,0.166,0.232,0.5,0.169,0.767l-0.96-0.455c0.897,0.718-0.226,1.914-0.728,2.04
				c-0.363,0.023-1.084,0.071-0.96-0.455l0.566-0.386c-0.677-0.643-1.617,1.324-2.313,0.245c-0.02-0.434,0.27-0.623,0.325-0.887
				c-0.891,1.271-1.69,1.145-2.959,2.047l0.791-1.886c-1.073,2.082-3.273,1.419-4.788,0.262c0.162,0.328,0.463,0.564,0.266,0.927
				c-0.922,0.43-1.569-0.898-1.117-1.89c-0.934,1.558-3.358-1.427-4.622,0.596c-1.93,3.168-3.828,6.367-5.696,9.604
				c0.208-0.242,0.431-0.438,0.658-0.521c0.475,1.676,0.743,1.475-0.148,3.05c0.866-0.881,0.559-2.228,1.847-2.291
				c-0.519,0.843-0.675,2.755,0.547,2.973c3.09-1.589,5.253-6.292,8.243-8.643c0.066,1.293,2.355,0.995,3.452,1.33
				c-0.476,1.372-1.309,1.744-2.168,2.001c0.53,0.102,1.446,0.165,2.124,0.245L225.214,5.962z"/>
			<path fill="#393939" d="M217.881,10.096c0.074,0.117,0.152,0.184,0.232,0.248C218.073,10.235,218.004,10.15,217.881,10.096z"/>
			<path fill="#393939" d="M222.449,8.378c-0.013,0.049-0.01,0.087-0.016,0.139l0.273-0.091
				C222.616,8.409,222.513,8.39,222.449,8.378z"/>
			<path fill="#393939" d="M209.855,16.025c-0.185,0.369-0.32,0.471-0.506,0.841c0.113-0.125,0.254-0.224,0.39-0.334
				C209.869,16.357,209.933,16.182,209.855,16.025z"/>
			<path fill="#393939" d="M209.27,13.753l0.103-0.53c-0.078-0.06-0.132-0.073-0.201-0.115
				C209.147,13.393,209.167,13.633,209.27,13.753z"/>
			<path fill="#393939" d="M236.275,18.18l0.306-0.265C236.406,17.928,236.324,18.037,236.275,18.18z"/>
			<path fill="#393939" d="M228.545,8.295c-1.071,0.071-0.214,1.917-1.718,1.851l0.436,0.14c-1.113,0.755-2.992,0.351-4.276,0.374
				c0.172-0.763-0.745-0.956-0.554-2.142c-0.889,0.255-1.768,0.495-2.257,1.712c-0.531-0.418-1.387,0.641-2.062,0.114
				c0.271,0.728-1.045,2.409,0.653,1.575c-0.138,0.095-0.058,0.261-0.194,0.359c1.049,1.033,1.53-0.658,2.462-0.655
				c0.532,0.726-0.944,1.121-0.429,1.421c1.182-0.629,3.602,0.958,3.626-1.719c0.853-0.165,0.947,0.428,1.179,0.924
				c1.459-2.823,4.897,1.462,5.059-2.189c-0.496,0.119-1.29,0.001-2.043,0.745L228.545,8.295z"/>
			<path fill="#393939" d="M211.625,15.847c0.064,0.018,0.151,0.006,0.204,0.038C211.769,15.866,211.693,15.852,211.625,15.847z"/>
			<path fill="#393939" d="M198.254,5.241l0.429-2.392c2.561-0.59,3.493,0.108,5.734,0.018c0.17,0.327-0.102,0.532-0.24,0.637
				c1.577-0.269,3.927,0.244,5.086-0.845c0.502,0.022,1.808,0.786,1.301,1.484c0.246-0.209,0.528-0.412,0.807-0.335
				c0.062,0.858-0.63,0.242-0.656,0.944c0.221,0.058,0.305,0.225,0.36-0.045c-0.382,0.735,0.344,2.909-1.387,2.845
				c-0.648-2.005,1.205-0.226,0.837-2.436c-0.577-0.018-0.52,0.837-0.572,1.106c-0.733-0.054-0.708-0.609-0.663-1.113
				c-0.289,0.684-1.204-0.275-1.602,0.764c-1.429,0.164,0.09-1.658-0.844-1.638l-0.552,2.235l-1.548-0.43
				c-2.241,0.775,0.308,3.867-2.237,5.119c0.334-1.166-0.69-3.133-1.884-3.605c0.71-0.079,2.027-1.53,2.949-0.861
				c-1.299-1.758,1.789-0.201,1.119-2.21c-0.647,0.946-1.717,1.068-2.554,0.552l0.274-0.205c-0.892-0.242-1.556,2.094-2.785,1.195
				c-0.608,0.075-0.499-0.554-0.395-1.08C198.717,5.289,198.259,5.735,198.254,5.241z M199.579,4.752l0.818,0.226
				C200.201,4.609,199.897,4.619,199.579,4.752z"/>
			<path fill="#393939" d="M101.508,40.292l-0.267-0.137C101.311,40.249,101.408,40.278,101.508,40.292z"/>
			<path fill="#393939" d="M170.088,32.923l-0.454-0.045C169.814,32.943,169.958,32.944,170.088,32.923z"/>
			<path fill="#393939" d="M160.6,40.946l-0.604,0.576C160.248,41.468,160.431,41.243,160.6,40.946z"/>
			<path fill="#393939" d="M106.821,39.492l0.025,0.012c0.03-0.043,0.048-0.098,0.081-0.136L106.821,39.492z"/>
			<path fill="#393939" d="M140.093,37.651c-0.121-0.177-0.253-0.335-0.421-0.449C139.716,37.42,139.87,37.562,140.093,37.651z"/>
			<path fill="#393939" d="M160.711,40.839c-0.019-0.017-0.028-0.025-0.042-0.038l-0.069,0.145L160.711,40.839z"/>
			<path fill="#393939" d="M174.878,39.173c0.092-0.076,0.175-0.132,0.273-0.233C175.019,38.989,174.941,39.075,174.878,39.173z"/>
			<path fill="#393939" d="M173.906,32.868c0.101-0.061,0.196-0.134,0.268-0.233L173.906,32.868z"/>
			<path fill="#393939" d="M189.569,36.647l0.593-0.331C189.868,36.357,189.695,36.484,189.569,36.647z"/>
			<path fill="#393939" d="M175.584,34.264l0.078-0.307C175.582,34.03,175.549,34.163,175.584,34.264z"/>
			<path fill="#393939" d="M96.403,34.431c0.013-0.005,0.035-0.014,0.035-0.014l-0.036-0.258L96.403,34.431z"/>
			<path fill="#393939" d="M95.585,37.899l-0.488,0.289C95.295,38.161,95.471,38.054,95.585,37.899z"/>
			<path fill="#393939" d="M130.908,35.129c-0.203-0.299-0.63-0.633-0.505-1.023C130.16,34.61,130.334,35.729,130.908,35.129z"/>
			<path fill="#393939" d="M96.672,20.147c-0.041,0.315-0.119,0.565-0.199,0.81C96.64,20.595,96.789,20.295,96.672,20.147z"/>
			<path fill="#393939" d="M96.473,20.957c-0.082,0.179-0.171,0.365-0.239,0.556C96.325,21.35,96.405,21.162,96.473,20.957z"/>
			<path fill="#393939" d="M132.61,16.171c0.061,0.147,0.14,0.266,0.231,0.296C132.778,16.169,132.701,16.111,132.61,16.171z"/>
			<path fill="#393939" d="M94.6,37.923c0.011,0.542-2.031,2.142-0.06,2.019c0.261,1.641-1.071,1.003-1.497,1.509
				c0.45,0.306,0.035,1.081,0.269,1.64c0.21-0.25,0.412-0.778,0.853-0.747c0.345,0.704-0.181,1.337-0.731,1.161
				c0.786,0.735-0.498,1.446,0.497,1.929c1.713-0.938,2.877-1.824,3.704-4.421c-0.98,0.569-2.049,1.31-3.046,0.828l0.072-1.482
				c1.23,1.042,1.639-0.017,2.631-0.053l-2.311-0.327c-1.252-0.965-0.632-1.372,0.115-1.791C94.897,38.21,94.701,38.161,94.6,37.923
				z"/>
			<path fill="#393939" d="M93.561,25.27l-0.046-0.033c-0.023,0.056-0.057,0.095-0.065,0.159L93.561,25.27z"/>
			<path fill="#393939" d="M188.711,7.609l0.183-0.546C188.735,7.31,188.689,7.48,188.711,7.609z"/>
			<path fill="#393939" d="M96.252,31.857l-0.002,0C96.262,31.839,96.266,31.838,96.252,31.857z"/>
			<path fill="#393939" d="M183.804,7.633c0.007-0.037,0.014-0.079,0.022-0.124C183.81,7.554,183.811,7.596,183.804,7.633z"/>
			<path fill="#393939" d="M183.633,38.618c0.011,0.065,0.016,0.128,0.038,0.193C183.767,38.727,183.717,38.662,183.633,38.618z"/>
			<path fill="#393939" d="M183.805,7.767l-0.001-0.134C183.802,7.681,183.795,7.726,183.805,7.767z"/>
			<path fill="#393939" d="M160.395,14.272c0,0,0.094,0.243,0.229,0.471C160.659,14.607,160.602,14.454,160.395,14.272z"/>
			<path fill="#393939" d="M165.195,16.096c0.032,0.051,0.059,0.094,0.095,0.152L165.195,16.096z"/>
			<path fill="#393939" d="M132.821,41.399c0.222-0.008,0.381-0.066,0.511-0.144C133.168,41.24,132.996,41.268,132.821,41.399z"/>
			<path fill="#393939" d="M183.826,7.509c0.044-0.153,0.108-0.313,0.218-0.511C183.923,7.209,183.861,7.37,183.826,7.509z"/>
			<polygon fill="#393939" points="153.96,22.082 154.087,21.913 153.996,21.849 			"/>
			<path fill="#393939" d="M151.468,21.237c0.067-0.17,0.088-0.341,0.12-0.492c-0.799,0.669-2.435,0.159-2.471,1.694
				c0.287-0.063,1.875,0.701,1.704,1.614c0.558-0.432,1.536,0.559,1.831,0.282c-1.051-0.748-0.226-1.274,0.387-1.845
				c0.64,0.393-0.001,1.234,0.54,1.471l1.369-0.288l-1.224-0.097l0.235-1.495c-0.04,0.054-0.066,0.089-0.111,0.151
				C151.866,23.089,153.479,20.106,151.468,21.237z"/>
			<path fill="#393939" d="M151.588,20.745c0.12-0.103,0.222-0.225,0.295-0.388C151.692,20.397,151.631,20.552,151.588,20.745z"/>
			<path fill="#393939" d="M142.949,19.137c-0.1,0.061-0.207,0.143-0.338,0.272C142.673,19.344,142.824,19.258,142.949,19.137z"/>
			<path fill="#393939" d="M204.775,18.094c-0.034-0.433-1.236-1.33-1.216-0.2l1.076,0.361L204.775,18.094z"/>
			<path fill="#393939" d="M121.091,28.431c0.136,0.017,0.27,0.011,0.4-0.024l0.051-0.183
				C121.436,28.07,121.207,28.31,121.091,28.431z"/>
			<path fill="#393939" d="M150.505,24.614c0.201-0.191,0.281-0.377,0.316-0.56C150.689,24.154,150.573,24.312,150.505,24.614z"/>
			<path fill="#393939" d="M120.613,25.786c-0.217-0.299-0.538-0.744-0.639-1.165c-0.346,0.044-0.497,0.667-0.814,0.931
				C119.529,25.329,120.003,25.365,120.613,25.786z"/>
			<path fill="#393939" d="M119.135,25.577c0.01-0.01,0.025-0.025,0.025-0.025L119.135,25.577z"/>
			<path fill="#393939" d="M205.487,18.576c0.104-0.086,0.21-0.163,0.32-0.235l-0.167,0.3l0.823,0.348
				c0.1-0.071,0.208-0.139,0.341-0.178c-0.053,0.039-0.096,0.158-0.122,0.282l0.263,0.133c0.664-1.166,2.312-2.011,2.794-2.695
				c0.632-0.499,1.405-0.778,1.885-0.685c-0.446-0.025-1.042,0.206-0.873,0.853c0.897,0.686,1.301,2.6,2.889,0.98l-0.915,0.001
				l2.108-2.452c0.7,1.061-1.056,1.223-1.358,2.118c1.628-1.192,2.881,2.149,3.674-0.003c0.072,1.29,0.192,3.444,1.238,3.346
				c-0.713-1.49,0.653-0.926,0.078-2.515c0.384-0.727,1.156,0.497,1.245-0.466l-0.114,0.531c1.725,2.088,2.411-1.089,3.22-2.119
				c2.172-0.459,3.129,0.378,4.889,0.264c0.031,0.865,0.4,3.261,1.102,3.207c0.379-1.15,1.987-1.609,2.225-3.096
				c-1.227-0.688-1.091,1.2-1.857,1.513c-0.552-1.599,0.017-1.554-0.796-2.533c0.662,0.645,3.168-0.657,3.849,0.851l-0.278,0.193
				c1.164,0.954,1.184,4.661,3.313,2.527l1.011-0.866c-0.055,0.147-0.071,0.321-0.104,0.454c1.558,0.235,1.021,1.912,2.834,0.66
				c-0.14,0.097-0.067,0.265-0.209,0.359c0.928,0.886,2.029-0.708,2.8-1.01c0.367,1.277-0.194,1.217-0.536,2.097
				c1.689,0.608,20.768-1.388,21.967-2.826l1.06,0.813c-0.705,0.464-1.614,1.716-1.47,2.483c0.631-0.203,0.559-0.802,1.406-0.498
				c-0.212,0.785-0.633,1.5-1.117,2.471c1.675,1.462,0.624-2.792,1.676-0.258c0.559,0.058,0.981-1.081,1.122-2.037l0.912,1.333
				c0.216-1.215,1.481-1.192,2.322-1.316c0.148-0.519-0.549-1.353-0.904-0.904c0.145-0.956,1.066-1.344,1.631-1.282
				c-0.026,2.579,3.734-0.012,2.78,2.942c2.608-0.588,6.193-0.502,7.985-1.408c0.475,0.761,1.593,0.906,0.786,2.041
				c2.033,0.193,3.387-7.801,5.329-6.87c0.129,0.341-0.917-0.087-0.947,0.775c1.446-0.866,2.268,1.372,4.397,0.934
				c-0.35,0.005-0.518,0.521-0.599,0.78c0.018-0.428,0.95-0.778,1.533-1.125c0.269,0.256-0.436,0.259-0.311,0.604
				c3.782,1.69,7.266-1.376,11.189-0.67c-1.119-0.196-1.791,1.43-1.904,2.12l1.091,0.188c0.548-0.781,1.371-0.66,2.157-1.192
				c0.036,0.329,0.319,0.719-0.084,1.068c1.896,2.017,3.868-2.59,6.398-1.33l-3.765,2.934l0.604,1.298l-1.65,1.343
				c0.689,1.053,1.761-0.996,1.658,0.295c-0.235,0.336-0.642,0.158-0.766,0.846c0.723,0.615,0.938-0.327,1.583-0.488
				c-2.012,2.367-5.105,1.882-6.872,2.278c-0.293,0.167,0.319-0.596,0.405-0.853c-0.695-0.013-0.984-0.882-1.911-0.554
				c-0.694,1.022,0.288,0.867,0.694,1.044c-0.2,0.947-0.404,0.86-0.895,0.935c0.084-1.29-2.515-0.823-2.903-2.469
				c-2.579,0.073-0.058,3.346-2.439,2.491l-0.536-1.549c-1.584,0.958-3.554,1.738-5.126,1.231l0.346-0.006
				c0.305-0.598-0.02-1.029-0.146-1.37c-1.145-0.773-2.46,0.872-3.022-0.683c-1.581,1.376-4.029,7.801-5.706,8.469
				c-0.217-1.972,2.257-6.978,3.059-8.109l-1.453,5.395c0.901,0.063,1.34-6.176,2.005-7.206c-1.234-0.509-1.849,6.695-3.109,7.062
				c0.152-0.517,0.026-0.856-0.53-0.925l-0.298,1.267c0.001-0.105-0.05-0.208-0.213-0.307l-2.229,0.575
				c0.397,0.594,0.301,1.714,0.852,1.782c-0.118-0.767,0.367-0.87,0.918-0.797c-0.575,0.79,0.463,0.759,0.376,1.45
				c-1.103-0.142-2.482-0.101-3.243,0.18l-0.114-1.205c-1.027-0.402-2.208,0.15-2.89-0.264l0.287-0.607
				c-1.235-0.484-2.554,0.156-3.576-1.108c-1.258,1.264-2.78,2.289-3.82,3.636c-0.615,1.493-20.219-2.164-21.659-0.106
				c-0.074-0.17,0.96-1.085,1.441-1.632c-0.831-0.3-1.647,1.552-1.792-0.077c1.862,0.681-0.006-1.292,0.887-1.686
				c-0.896-0.037-1.86,0.184-2.338,0.726c1.444,0.095-0.672,2.188,0.837,1.595c-1.229,1.271-2.799,1.696-4.107,1.076
				c0.059-0.694-0.085-1.027-0.569-1.34l-0.469,0.988c-0.619-0.216,1.296-1.132,0.049-1.556c-1.412,1.659-3.883-1.179-4.633,1.984
				c-0.926-1.311,1.965-1.181,0.55-2.8c0.941-1.108,2.072,0.273,2.456-1.305c-0.887,0.41-0.233-1.363-0.788-1.407l-1.017,0.934
				l0.209,0.072c-1.694,1.422-4.198,0.571-6.265,0.722c-1.813,1.505-3.095,3.785-5.159,3.56c0.648-0.925-1.692-0.955-0.323-2.646
				c-0.935-0.859-1.921,0.1-1.961,0.795c0.839,0.263,0.291,0.233,0.992,0.594c-0.51,0.832-1.614,0.763-2.052,0.198
				c0.209,0.067,0.134-0.097,0.189-0.36c-0.993-0.596-0.509,0.826-1.247,1.158c-0.198-1.188-1.6-0.361-2.25-0.992l-1.004,1.659
				c0.554-1.094-0.914-0.431-1.046-1.455c-0.709,0.764-1.311,2.106-2.357,1.811c0.444-0.576-0.947-0.84-0.95-1.964
				c-1.798-1.086-3.019,3.051-4.71,1.433c0.054-0.263,0.404-1-0.095-1.286c-0.395,0.312-1.084,0.176-1.505,0.296l0.013-0.032
				c0,0-0.014,0.02-0.022,0.032c-0.206,0.06-0.336,0.198-0.342,0.471c-0.721,1.096-1.092,2.221-2.499,3.147
				c0.108,1.288,1.293,0.794,1.808,0.383l0.446-1.269c0.422,1.945,1.273-0.329,1.596,0.326c-0.854,2.273-3.281,1.7-4.73,3.093
				c0.895,1.798,2.812,2.09,4.488,1.88l-0.736-0.776l0.878-0.02l-0.847-1.373c0.833,0.244,1.555-0.103,2.309-0.021
				c-0.882,0.02-1.218-1.757-0.719-1.473c0.978,1.268,1.033-0.82,1.788-0.738c-0.419-0.12-0.966-0.144-0.608-0.879
				c1.476,1.553,1.889,0.55,3.22,2.208c-0.138-2.149,1.691-0.207,1.923-1.964l-0.626-0.183l1.358-1.278
				c1.198,1.784-1.121,1.752,0.725,3.041c1.717,0.264,1.724-1.991,3.089-2.119c-0.482,1.258-1.581,2.319-2.672,2.252l0.648,0.631
				c-0.366,0.729-1.87,0.524-2.621,0.438c1.27-1.445-0.574-0.457-1.125-1.596c-0.122,1.231,0.679,1.042-0.278,2.024
				c0.883-0.014,1.015-0.133,2.129,0.359c-2.421-0.594-2.243,4.253-4.333,3.203c0.977-0.551-0.32-1.777-0.433-2.374
				c-0.46,0.147-1.393,0.434-1.776,0.74l0.334,1.779c-1.228,0.761-1.642-3.004-3.066-1.179c-0.185,1.063,1.246,0.367,0.991,0.571
				c-1.938,1.107-2.634-1.76-4.374-3.107c-0.095,0.534-0.069,1.657-0.665,2.598c0.183-1.069-0.269-1.616,0.407-2.394
				c-0.582-0.457-1.262,0.351-1.767,0.772c1.207,0.603-0.478,1.542-0.69,2.185c-0.623-0.17,0.177-1.068,0.557-1.384
				c-0.501-0.276-1.114-1.838-1.379-0.235c-0.035-1.123,1.366-2.982,2.297-3.289l-0.63-0.17c0.428-0.581,0.511-0.421,1.136-0.257
				c-0.617-0.86-0.565-1.821-0.428-2.625c0.082,0.163-0.043,0.267,0.036,0.427c0.506,0.273,0.891-0.027,0.771-0.626
				c0.446-1.51-0.707-0.946-1.057-1.684l-0.77,0.316l-2.562,4.893c-1.105,0.583-1.624-0.568-2.477-1.285l-0.205,1.3
				c-0.971-0.116-1.897-0.511-1.31-2.162c0.044,0.433,0.171,0.327,0.383,0.386c0.024-0.176,0.07-0.302,0.13-0.406l0.044-0.226
				c-1.034,0.437-1.678,0.72-1.736,0.77c1.727-1.911,0.034-2.354,0.276-4.657l-1.782,0.781c1.109,0.71,0.049,1.122-0.328,1.441
				c-0.142-1.287-1.446,0.031-2.08-0.128l0.038-0.267c-0.597-0.425-1.616-0.256-2.33,0.123c0.048,0.432-0.807,2.581-1.202,3.871
				c1.256,0.434,0.54,0.981,0.669,1.779c-0.131-0.068-0.361-0.074-0.381,0.092c-0.163,0.375,0.258,0.48,0.308,0.907
				c1.287-0.656,2.63-0.881,3.11-2.706c-0.43-0.799-0.663,0.808-1.133,0.281c0.612-1.243,1.463-1.037,2.559-1.015l0.389,1.076
				l1.085-0.606c-0.445,0.58-0.139,1.707-1.284,1.944c0.175,1.017,1.135-0.252,1.849,0.079l0.326-1.443
				c-0.119,0.803,1.393,0.931,0.346,2.042l-1.71,1.205l0.508,0.973l-1.458,0.302l0.325-0.75c-2.327,1.039-0.783-2.862-3.106-1.072
				c-0.685,1.77-1.472,1.989-2.941,1.624c1.036-0.431,0.06-1.229,0.418-2.251c-1.106-0.683-1.412,0.765-1.94,1.466
				c-0.312-0.907-0.54-1.651,0.428-1.556c0.04-1.928-1.252,0.385-1.425-1.592c-3.201,0.193-2.246,6.487-6.079,4.183l0.095-0.806
				c-2.297,1.143-3.712,0.277-5.852,1.043l-1.857-1.92c0.362-0.336,1.298-1.917,0.746-2.864c0.98,1.997,1.822,1.225,2.797,2.268
				c0.059-0.539-0.334-0.902-0.516-1.22c0.548-0.016,0.879,0.887,1.578,0.485c-0.06-0.42-0.88-0.88-0.301-1.168l1.058,1.201
				c1.276-0.686,0.47-3.066,2.051-2.584c-0.226,1.146-0.719,2.815-1.298,3.123c0.717,0.199-0.897,0.741-0.216,1.374
				c0.915-1.726,1.478-0.461,2.768-1.557c-0.146,0.24-0.17,0.568-0.496,0.685l1.99,0.625c-0.533-0.957,1.561-1.138,1.31-2.583
				c-2.121-0.514-1.461,0.33-3.888-0.388c0.656-0.366,1.449-1.87,1.79-3.249c0.024,0.057,0.061,0.101,0.136,0.125
				c0.293-1.451-0.1-1.822-0.222-4.334c-1.009,1.832-1.824,0.381-3.065,1.5c-0.164,1.391,0.85,1.702,1.473,1.313l-1.088,0.98
				l0.188-0.646l-2.919-0.278c0.543-0.108,0.681-0.917,0.932-1.536c-0.378-0.031-0.77-0.37-1.189-0.743
				c0.164,1.307,0.169,2.236-0.197,2.234c-1.88-0.193-2.995-1.306-3.79-2.76c-0.07,0.035-0.147,0.074-0.212,0.107
				c0.406,1.324-1.158,2.5-1.632,3.909c-0.073-1.391-1.02-0.773-1.611-1.449c-0.164,1.612,0.386,3.788,1.13,5.049
				c1.141-1.535,0.591-1.513,1.034-3.619l1.921-1.506l-0.364,1.3c1.043,0.498,1.899-1.244,1.934,0.416
				c-0.458,1.137-1.379,0.523-1.828,1.663l0.704,0.563c-1.055,1.7-0.708-1.528-2.045-0.304c0.621,1.373-0.121,0.109-0.658,1.091
				c0.556,0.949,2.459-0.559,2.201,1.858c-0.654,1.09-2.67-2.645-3.464-0.208l0.027-0.273c-1.456-0.221-1.852,1.177-2.314,2.087
				c-0.669-0.721-1.416,0.44-2.064,0.583l-0.043-0.697l-0.901,0.372c0.333-1.305,1.089-0.061,1.868-0.314l-0.206-1.282
				c1.045,1.456,1.466-0.935,2.096-2.097c-0.952,1.195-2.968-0.065-2.999,2.476l-0.754-1.248l-0.267,0.498
				c-0.564-0.937-0.208-2.513,0.701-2.885c0.189,0.312,0.284,0.466,0.258,0.739c0.384-0.613,0.7-1.65,1.773-1.444l-0.504,0.732
				c1.311-0.032,2.46-0.597,2.813-1.895c-1.936-0.44-3.805-0.351-5.577-0.151c-0.271,2.961-0.743,4.65-0.765,7.383
				c-1.132,0.602-2.688,1.112-3.805,0.208l0.043-0.54c-0.526-0.236-0.972-0.049-1.325,0.291c-0.598-0.664,0.22-1.462-0.186-1.815
				l-1.599,1.053c-0.021-1.234,1.403-1.362,2.071-1.507c-0.118,0.114-0.355,0.341-0.256,0.497c0.833,0.437,2.101-1.777,2.612-0.032
				c0.353-0.341-0.653,1.375,0.648,1.357c0.926,0.593,1.063-1.023,1.106-1.563c-0.048-0.697-1.451-0.834-1.049-1.712
				c-0.67,0.146-0.856,1.064-1.785,0.47c0.662-0.142,1.445-1.63,1.903-0.582c1.21-1.41,0.732-4.653,0.082-4.78
				c0.241,1.009-2.324,1.47-0.449,2.651c-0.664,1.382-2.095,1.514-3.039,2.422l0.021-0.266l-1.239,0.437
				c0.142-0.379,0.496-0.722,0.44-1.414l-1.574,2.012c0.863-1.335-0.704-0.82-1.211-1.31c-0.078,1.082-0.679,1.935,0.041,2.47
				c0.818,0.691,0.369-0.625,1.033-0.773l-0.776,1.774l-0.099-0.155l-0.425,1.433c-1.3,0.044,0.225-3.244-1.287-1.724l0.417,1.842
				c-1.937-0.066-4.64-1.893-5.896-0.886c0.247-1.101,0.214-2.824-0.423-3.777c0.626,0.256,1.799,0.06,2.623-0.207
				c0.198,0.31-0.8,2.32-1.758,2.017c0.797,3.004,2.085-2.095,2.546,0.987c2.438,0.827,1.406-3.172,3.578-1.571
				c-0.119-1.388,0.49-0.738,0.467-1.969c-0.826-2.193-2.643,0.368-4.015-0.281c0.115-0.115,0.345-0.349,0.366-0.616
				c-0.967-0.305-1.314,0.044-1.898,0.629l0.1,0.154c-0.967,1.472-0.814-0.955-1.549-1.491c-0.233,0.234-1.203-0.064-0.933,0.933
				l-1.359-1.181l0.245,1.536c-0.665,0.164-0.939-0.838-1.436,0.168l0.143,1.382l1.733,0.296c-0.793,0.544-0.075,1.348-0.97,1.738
				c0.853-1.622-0.829-0.685-1.092-1.954l-0.588,0.852l0.129-0.387c-0.628-0.648-0.576,0.577-1.225,0.478
				c0.837,0.674,1.443,1.601,2.261,0.515c-0.59,0.853-1.838,1.85-2.161,1.951c-0.64,0.673-1.276-0.312-1.968-0.377
				c1.215-0.724-1.004-4.12,1.717-3.473c-0.014,0.27-0.231,0.239-0.334,0.087c0.571,1.707,1.541-0.293,2.023-1.03
				c-0.273-0.999,0.288-1.316-0.786-1.766c0.411,0.619-0.56,2.339-1.615,1.645l-0.113-2.193l-1.423-0.071l0.117-0.12
				c-0.708-1.328-1.448,0.466-2.516-0.228c-0.587,0.866-3.322,0.603-1.864,2.719c-1.048-1.242-1.556,0.586-2.446,1l1.29,0.731
				c-1.148,1.733-0.9,0.679-1.633,3.289c-0.198-0.578-0.513-1.031-0.383-1.685c-1.857,0.11-4.578-0.101-5.371,1.847
				c-1.302,0.108-1.917-2.405-3.571-1.124c-0.332,0.364,0.63,1.973-0.671,1.54c-0.108-0.147,0.891-1.781-0.419-1.402
				c-0.673,1.811-2.395-0.568-3.388,1.066c-0.758-0.496-1.855-0.092-1.85-1.443c1.092,0.137,2.514-0.366,2.631-1.031
				c-0.008,0.814,0.87,0.652,0.209,1.382c1.737,0.75,0.88-0.973,2.403-0.514c0.01-0.543-0.968-1.341-1.191-0.824
				c-0.31-1.793,2.642-1.303,1.027-3.26c-1.545,0.082-1.358,3.894-2.988,2.209c0.338-1.174,1.316-0.378,1.668-2.368l-1.203-0.553
				l-0.563,1.42l0.001-0.272c-2.191-1.34-1.447,2.113-2.979,3.295c1.199,1.069,0.328,3.147,1.197,3.781
				c-1.082,0.426-1.947,0.339-2.28-1.452c1.846-1.84-0.226-1.922,1.415-4.052c-0.437-0.586,0.004-2.71-1.206-2.7
				c-1.093,1.518,0.661,1.422-0.548,2.251c-0.107-0.146-0.217-0.294-0.218-0.565c-0.436,1.04-0.768-0.208-1.312,0.952l0.108-0.39
				c-1.104-0.925-0.76,1.409-1.756,0.366c0.558,1.272-0.318,1.182-0.642,2.098c0.88,0.361,1.659,2.192,3.18,1.808
				c-0.006-1.085-0.226-1.649,0.317-2.271l-0.983,0.309c0.185-0.212,0.301-0.512,0.462-0.758l1.066,0.37
				c-1.088,0.972-0.322,1.996-0.641,3.182c-1.199-0.258-0.867,0.455-1.631,0.238c-0.214-1.554-2.647-2.245-4.132-3.003
				c0.212,0.024,0.464-0.062,0.611-0.048c0.754-1.143-0.893-1.168-1.01-1.585l-0.537,0.893c0.109-0.129,0.218-0.52-0.117-0.685
				c-0.874,0.454-0.521,1.97-1.387,2.424c-0.238-0.833,0.292-2.262-0.372-2.602c-0.344-0.703-1.372-2.555-2.461-1.584
				c-0.022,0.342-0.307,0.576-0.648,0.794c0.042-0.056,0.1-0.103,0.111-0.167l-1.006-0.755c0.403-1.593,1.55,0.397,1.964-1.176
				l-0.215-1.383c0.549-0.104,1.18-0.833,1.384-1.607c-0.888-0.082-0.994,0.311-1.878,0.765c-0.307-0.844,0.228-1.608,0.305-1.719
				l0.016,0.807c1.349,0.936,1.419-1.619,2.872-1.617c0.223,0.018,0.113,0.143,0.117,0.413c0.878-1.537,2.339,0.09,3.111-1.868
				l-0.224,0.79c0.64-0.721,1.858-2.341,3.098-3.917l-0.085-0.539c-0.223-0.293,0.336-0.374,0.673-0.21v0.008
				c0.622-0.792,1.23-1.518,1.739-2.057c-0.246-0.301-0.535-0.542-0.825-0.576c-0.123,0.663-1.577,0.398-1.133,1.792
				c-0.785-0.749-1.573,0.671-2.133,0.212c1.009,0.768-0.338,1.454-0.338,2.269c-0.449-0.851-1.229,0.292-1.346-0.941
				c-0.225-0.286,0.562,0.731,0.784-0.06c0.671-1.289-1.798-0.704-0.901-1.976c-1.238,1.103-3.15,1.065-4.372,2.439l0.901,0.35
				c-0.674-0.062-2.132,0.479-2.361-0.085c0.447-0.226,1.005-0.312,1.566-0.664c-0.238-1.371-1.46,0.271-1.695-0.56l-1.313,2.579
				l0.787-0.063c-0.321,0.905-2.129,0.221-3.36,0.279c0.301-1.999,1.784-0.436,2.893-1.399c0.775-0.874-0.929-1.702-0.15-2.307
				c-0.313-0.394-0.871-0.241-1.056,0.28l-0.411-0.273c0.431-1.847,2.254-1.776,3.131-3.452c-0.066,0.201-0.118,0.41-0.111,0.613
				c1.025,0.498,1.927,0.307,2.715-0.3c-0.565-0.455-0.678-0.056-0.904,0.188c-0.114-0.414,0.676-0.744,0.9-1.267
				c-0.909-0.35-0.344-0.977-0.914-1.165c0.454-0.501,0.908-0.46,1.589-0.397c0.457,0.583-0.11,0.936,0.118,1.764
				c0.57-0.625,1.252,1.338,2.042,0.189c-1.36-0.122-0.001-1.898,0.344-2.544l-0.229-0.02c0.229-1.063,0.573-1.168,1.023-0.313
				c-0.458,0.501-1.023,0.313-0.687,1.292c0.343-0.106,0.684-0.211,1.026-0.586l-0.228,0.791l1.703-0.524
				c0.116-0.937,0.353-2.274,0.363-3.629c0.563,0.729,1.033-0.025,1.379-0.399l-0.121,0.398c0.909,0.638,2.522-0.266,2.535-1.076
				c0.665,0.617-3.04,5.619,0.73,4.281c1.479-0.239,0.497-2.657,1.201-3.659c0,0-0.005,0.265,0.107,0.415
				c0.682,0.081,0.588-0.884,1.058-1.373c-0.454-0.32-1.025-0.249-1.147,0.144c0.022-1.082,1.375-0.12,1.739-1.027
				c-0.384,1.723,1.362,0.422,0.994,1.334c1.464,0.841,2.641-0.659,3.139-1.962c1.197,1.905,1.502-0.527,3.083,0.235
				c-0.229-0.031-0.583,0.328-0.925,0.15c-0.62,1.402,1.586,0.481,0.51,1.829c0.238-0.238-0.085-0.689-0.329-0.449
				c-0.46,0.21-0.823,0.855-0.612,1.423l1.335,0.975l-0.357,0.367l1.997,1.349c0.009-0.266-0.204-0.568-0.313-0.718
				c2.141,0.426,4.343-0.765,6.161-0.791c-0.166-3.696,4.193-2.16,5.358-4.58c-0.258,1.092-0.232,2.97,0.105,3.703
				c-0.303,0.194-0.77,1.762-1.538,1.55c-0.193-0.572-1.182-1.117-0.69-1.866c-1.964,0.685,0.485,1.567,0.069,3.007
				c2.176-0.664,3.217-2.944,4.531-3.959l0.089,0.428l0.971-0.935c-0.905-0.147-1.117-2.227,0.104-1.626l-0.125,0.117
				c0.75,0.802,1.969-0.371,2.994-0.346l0.547-1.276c1.028,0.026,1.323,2.258,1.799,3.562c1.592-0.015,2.303-1.949,3.314-3.162
				c0.611,0.905,3.005,0.94,1.87,2.232c1.335-0.984,0.534-6.194,3.278-3.506l-0.547,0.998c2.323-0.399,5.514-2.566,6.685-1.666
				c-0.576,3.467,3.216,3.188,3.887,6.495c-0.175-0.753,0.681-1.062,0.778-1.476c0.222,0.378,0.57,0.736,0.857,0.029
				c-0.961-0.61,0.381-3.493-1.263-2.041c0.706-2.335,1.722-4.19,3.681-4.2l0.068,1.39l-1.569-0.324
				c0.23,1.014-0.567,0.988-0.856,1.48c2.911,0.599-0.133,3.271,2.761,2.906c0.218-0.917,0.062-0.535,0.793-0.939
				c-0.353,0.069-0.35,1.029,0.223,1.011l0.475-1.142c1.168,2.249-1.576,1.612-0.6,3.184c-1.043,1.161-2.928,1.865-2.438,3.613
				c1.857,0.527,1.396-3.42,3.358-2.737l0.253,0.741c0.635-0.556,0.663-1.785,0.983-2.545c0.061,0.426,0.252,0.737,0.691,0.834
				c1.021-1.856,1.754-2.254,2.692-4.268c-2.711,1.639-2.481-1.205-5.29,0.28c0.414-0.604,2.424-1.156,2.43-3.082l0.061,1.393
				c0.897-0.782,1.8-1.557,3.013-1.175l-0.678,0.828c1.518-1.072,2.724,1.945,3.84-0.411c-0.444-0.105-0.798-0.049-1.058,0.173
				c0.776-0.652,1.801-0.555,2.692-0.354l1.716-2.371c0.016,0.69,1.174,0.685,0.666,1.81c1.357,1.006,1.886-1.092,2.634-1.467
				c1.404,1.422-1.14,0.705-1.19,2.631c1.873,0.57,3.803-0.092,4.807-1.384c-0.387-0.266-0.579-0.498-0.571-0.837
				c0.071,0.437,0.814,0.293,1.23,0.289l0.257-0.916c0.713,0.583,0.631,1.12,0.064,1.826c0.665,0.141,1.405-1.6,2.125-0.312
				c-1.099,1.097-2.566,0.205-3.132,0.91c2.333-0.996,2.455,2.682,5.403,1.475c0.047,0.432-0.437,1.281,0.137,1.283
				c1.321-0.356,0.304-1.869,0.697-2.882c-1.015,0.58-1.504,0.037-2.132-1.093l0.256-0.74c0.051,0.38,0.699,0.391,0.899,0.755
				l0.131-1.498c-0.036,1.656,1.025,2.899,1.823,2.266c-0.846-1.185-0.624-1.127-0.889-3.008c1.112-1.807,1.329,1.731,2.579-0.183
				c-0.088,0.534-1.201,0.951-0.225,1.34c0.803,0.058,0.674-1.229,1.207-1.651c-0.585,1.389-0.412,2.41-1.038,4.058
				c-1.415,0.199-0.573-0.008-1.946,0.618l1.195,1.145c-1.194,0.245-0.838,1.593-0.926,2.122c2.064,1.368,1.497-2.121,2.82-1.782
				c0.62-0.957-1.237-0.177-0.259-1.185c1.236,0.18,0.266-0.905,1.645-1.528l-0.224,0.637c0.434,0.812,0.839-0.205,1.329-0.353
				c0.537-0.427-0.671-4.783,1.566-4.915c-0.106,0.387-0.144,0.632-0.143,0.793l-2.034,11.622c2.217-0.087,4.777,0.228,7.339,1.032
				c0.6,2.268-1.825,1.858-1.666,2.879l-1.165-0.469c0.061-0.96,2.44-0.284,1.383-1.987c-2.058,0.671-3.005-0.429-4.937,1.595
				c0.627,2.261,2.566-0.461,3.844,1.317c-0.532-0.152-0.98,0.097-1.413,0.419c1.186,0.303,2.456,0.628,3.81,0.974l0.304-0.548
				c-0.91-0.259-1.541-0.457-1.622-0.539c1.207,0.205,2.228-1.046,2.314-2.706l-0.216-0.061l0.44-0.514L205.487,18.576z
				 M300.952,19.085c-0.096,0.147-0.181,0.322-0.258,0.545C300.774,19.397,300.748,19.236,300.952,19.085z M181.922,24.53
				c1.612,0.18,3.242,0.559,4.785,0.707c-2.874-3.176-4.955-5.575-0.268-5.696l0.299-0.243c-0.624-0.396-1.682-0.388-2.667-0.116
				c-0.77,1.195-3.179,5.571-3.13,5.948c0.318,0.906,0.688-0.112,1.211,0.147L181.922,24.53z M180.557,19.084
				c-0.933-0.328-0.693,0.391-0.808,1.049l0.952-0.286C180.573,19.687,180.503,19.458,180.557,19.084z M179.832,20.785
				c0.104,0.012,0.193,0.038,0.242,0.124L179.832,20.785z M197.635,21.153c-0.04,0.018-0.057,0.025-0.094,0.042
				c0.217,0.047,0.433,0.093,0.659,0.142C198.113,21.233,197.945,21.155,197.635,21.153z M195.759,19.582l-0.2,1.203
				c0.201,0.041,0.408,0.083,0.619,0.126C196.101,20.37,196.022,19.899,195.759,19.582z M189.684,15.748
				c-0.345,1.445-1.611,1.532-1.642,3.194c-0.069,0.427,0.201,0.585,0.503,0.717c0.333,0.037,0.689,0.077,1.067,0.119
				c0.007-0.242,0.077-0.468,0.196-0.687c-0.377-0.201-0.636-0.609-0.511-1.631c1.013,2.206,0.822-1.597,1.875-1.047
				C191.479,15.236,189.989,15.273,189.684,15.748z M110.845,27.323c-0.053-0.138-0.216-0.49-0.434-0.925l0.582-0.921
				c1.349,0.155,2.762,2.35,3.584,0.144c0.624,0.424,1.087,1.456,1.506,2.3c-0.274-0.024-0.534-0.072-0.762-0.176
				C112.588,31.214,113.117,24.879,110.845,27.323z M126.005,28.037c-0.117,0.12-0.126,0.394-0.126,0.394
				c2.425-3.397,4.689-4.588,6.251-4.677c-0.456-1.159-1.973-1.9-2.704-2.308l0.406-1.443l0.511,1.025l0.858-1.377
				c-0.407-0.88-1.209-0.579-1.857-1.211c-0.015,0.266-1.57,2.094-1.945,2.998l1.538,0.757c-0.432-0.331-2.258,0.232-2.948,0.679
				c0.084,0.686,1.503,1.571,1.457,0.065c0.292,0.994-1.173,1.199-0.094,2.164c-0.945,1.227-2.815,0.555-3.7,0.161l-0.387-1.684
				c-0.99-0.544-0.299,2.132-1.503,1.288c1.252-0.505-0.499-1.837,0.519-2.103c-0.427-0.599-0.274-1.8-1.298-1.533
				c-0.526,2.369-1.316-1.273-1.83,0.847c-0.655-0.619,0.38-1.447-0.744-1.581c-1.052,1.376-0.845,2.213-0.665,3.864
				c1.219,0.28,0.96-2.333,1.964-2.082l-1.435,3.099c0.406,0.343,0.666,0.345,0.862,0.199c-0.349,0.222-0.602,0.687-0.784,1.303
				c-0.114,0.343-0.212,0.64-0.298,0.9c1.054-0.15,1.995-0.257,2.267,0.416l-0.023,0.818c0.483,0.668,1.001,0.011,1.194-0.606
				c0.929-0.211,1.709-1.446,2.067-0.442l-0.251,0.776C124.433,28.358,124.548,28.24,126.005,28.037z M164.274,25.992
				c-0.913-2.888-1.894-5.461-5.175-4.701l0.245-0.225c-1.827-1.7-3.05,2.718-5.256,0.847c0.889-1.192,0.842-1.086,1.717-3.712
				l-0.992,0.921c0.155-1.624-0.835-0.706-1.623-0.714l0.519-1.96c0.52,0.506,1.755,0.598,1.681,0.169
				c-0.247,0.233,1.812,2.261,2.78,1.621c-0.209-1.279-2.317-0.572-1.533-2.76c-0.773,0.957-0.988-0.32-1.836,0.209
				c0.774-0.956,0.057-1.774,0.612-2.767l-1.423,0.563c-0.077-0.425,2.047-1.137,0.71-2.616c-0.528,0.725-2.173,0.013-2.075,1.402
				l-0.075-0.423c-1.126-0.206-0.302,2.004-1.721,1.33c0.05,0.699,0.351,1.158,0.819,0.974c0.378-0.345,0.352-1.304,1.175-1.57
				c0.474,1.052-1.024-0.048-0.275,1.736c0.371,0.888,2.14-0.98,1.71,1.134l-1.116-0.204c0.097,1.391-0.697,1.38-0.572,2.498
				c-0.615,0.569-1.389-0.941-1.952,0.325c-0.195,0.921,0.454,2.546-0.732,1.917c-1.071-1.968-3.618-1.376-4.546-0.955l-0.748,0.976
				c0.162,0.843,1.595-0.291,1.171,0.872l-1.274,0.477l0.044-0.544c-0.447-0.07-0.83,0.551-1.191,0.897
				c0.299-1.043,1.287-0.744,0.944-2.168c-0.647-0.217-0.799-0.741-1.337-0.403c0.113-0.115,0.204-0.269,0.166-0.47
				c-1.32-0.487-1.028,1.746-1.288,2.25c-1.039,2.014,1.455,1.604,1.457,3.108l-3.542,1.191c0.255-0.502,0.514-1.002,0.328-1.581
				c-0.971-0.569-0.15-1.117-1.398-0.91c0.322,1.961-1.433,1.401-2.178,2.636c-0.512-0.761-0.617-0.914,0.284-1.036
				c-0.26-1.268-1.416-0.643-1.862-0.713c-0.211,0.346-0.614,0.578-0.848,0.892c0.443,0.6,0.388,1.412-0.322,2.049l-0.011,0.274
				c1.326,0.202,3.481,1.389,4.123-0.011l-0.15,0.658c1.606,0.946,2.951-2.651,3.912-0.307c0.046,0.964,0.322,0.188,0.453,1.574
				l0.965-1.2l-0.156,0.652l1.813-0.516l-0.021,0.266c0.729-1.361,1.315-2.456,1.791-3.345c-0.061-0.604-0.138-0.784,0.111-1.26
				c0.265-0.334,0.486-0.393,0.695-0.333l0.001-0.007l0.001,0.007c0.476,0.137,0.869,0.978,1.467,1.282l-1.717,0.299
				c-0.035,1.037,0.223,2.089,1.14,2.734c-0.342,0.069-0.403,0.881,0.035,0.962c0.019-0.271,1.062-0.753,0.568-1.534
				c1.608-0.516,4.503,1.951,6.809-0.215c-1.679,1.329,1.548,1.253-0.392,1.845c1.522,1.525,1.046-1.719,2.478-1.585
				c0.17,0.58-0.774-0.011-0.998,1.181c2.389,0.455,3.732-3.007,6.052-2.636l0.192,1.275
				C163.328,26.422,163.792,26.211,164.274,25.992z M168.667,24.107c0.429-0.173,0.866-0.349,1.309-0.527l-0.134-0.03l1.258-1.117
				c-0.841-0.451-1.465-1.827-0.362-2.557c-0.065,0.537,0.307,1.167-0.071,1.502c0.809,0.723,2.521,1.363,1.977-0.551
				c-1.363,1.927-0.483-2.448-1.56-1.015c0.547-1.303,1.195-0.773,1.751-1.375c-0.552,1.097,0.275,2.382,1.216,2.856
				c0.382-0.328,1.473-0.073,2.11-0.612c-0.295-1.177,0.25-1.88-0.847-2.135c0.381-0.328,0.985-0.599,1.702-0.018
				c-0.263,0.214-0.733,0.381-0.679,0.809c0.496,1.074,1.012,1.005,1.32,1.459l0.673-0.218c-0.071-0.101-0.136-0.233-0.185-0.4
				l0.712-1.079c-0.987,0.6-0.493-0.529-0.511-1.226c0.035,1.391,0.66,0.154,1.006,0.094l-0.82-1.437
				c0.334-0.751,1.336,1.008,1.083-0.439c-1.631-0.518-2.239-0.242-3.669,0.254l0.644,1.115c-1.594,0.874-1.105-1.915-2.943-1.785
				c-0.709,1.055-2.76,0.235-2.677,2.316c0.194-0.651-1.252-1.782-1.823-0.798c-0.578,1.949-2.65,2.338-1.96,3.168
				c0.565-0.012,1.259-1.108,1.791,0.104l-1.069,0.466l0.783,0.993C168.3,21.577,168.401,22.59,168.667,24.107z M193.248,34.879
				l0.042,0.027l-0.046-0.006L193.248,34.879z"/>
			<path fill="#393939" d="M95.739,34.364c-0.214,0.516-0.986,0.593-0.633,1.567C94.861,34.822,96.425,35.507,95.739,34.364z"/>
			<path fill="#393939" d="M94.612,33.457c0.001,0.275,0.123,0.69-0.208,0.798l0.879-0.467L94.612,33.457z"/>
			<path fill="#393939" d="M92.115,26.115c-0.321,0.923-0.534,1.449-1.317,1.531c-0.848-2.629,1.1-1.008,0.934-3.587
				c-1.468,0.036-1.413,2.473-2.522,2.936C90.023,27.999,92.492,28.169,92.115,26.115z"/>
			<polygon fill="#393939" points="92.048,22.589 91.384,23.357 91.494,23.498 92.158,22.731 			"/>
			<path fill="#393939" d="M113.245,43.061c0.214,0.836,0.545-0.071,0.765-0.314C113.794,42.724,113.466,42.547,113.245,43.061z"/>
			<path fill="#393939" d="M281.174,40.017l5.931-5.654C285.399,34.376,283.835,39.831,281.174,40.017z"/>
			<path fill="#393939" d="M131.806,34.718c-1.474,1.012-1.972,2.57-3.522,3.155c2.342,1.432,2.42-3.043,4.432-1.525L131.806,34.718
				z"/>
			<path fill="#393939" d="M132.162,41.572c-0.476-1.567,0.956-2.036,0.573-3.18c-1.006,0.531-0.288,1.59-1.265,1.58L132.162,41.572
				z"/>
			<polygon fill="#393939" points="121.165,16.099 121.539,15.201 121.184,15.557 			"/>
			<polygon fill="#393939" points="139.115,39.286 138.985,39.667 139.833,40.089 			"/>
			<path fill="#393939" d="M138.857,40.056l0.129-0.388L138.857,40.056z"/>
			<polygon fill="#393939" points="121.298,12.584 120.504,12.342 120.246,13.125 			"/>
			<path fill="#393939" d="M129.024,20.301l-0.585,0.598C128.555,20.783,129.539,21.323,129.024,20.301z"/>
			<polygon fill="#393939" points="143.999,39.442 144.7,38.74 144.604,38.591 143.905,39.29 			"/>
			<path fill="#393939" d="M133.598,15.23c-0.613-1.182,1.281-0.478,0.202-1.464C132.984,14.047,133.407,14.653,133.598,15.23z"/>
			<path fill="#393939" d="M144.222,22.535c0.107-0.012,0.215-0.068,0.309-0.217C144.407,22.385,144.305,22.461,144.222,22.535z"/>
			<path fill="#393939" d="M144.222,22.535c-0.345,0.038-0.742-0.396-0.94-0.014C143.773,23.033,143.906,22.806,144.222,22.535z"/>
			<path fill="#393939" d="M148.155,21.849l-0.323-0.061c0.26-0.638,0.117-0.535-0.121-0.02c-0.329,0.071-0.27,0.46-0.282,0.73
				c-0.049,0.156-0.101,0.322-0.155,0.498c0.082-0.17,0.16-0.332,0.227-0.47C148.016,22.493,148.325,22.404,148.155,21.849z"/>
			<path fill="#393939" d="M164.44,41.506c-1.152-0.39-1.46-0.595-1.472-1.559c-1.089-0.239-0.795,1.404-1.405,1.829
				C162.75,41.515,163.029,41.942,164.44,41.506z"/>
			<path fill="#393939" d="M161.563,41.776c-0.133,0.028-0.259,0.062-0.412,0.112C161.327,41.902,161.453,41.848,161.563,41.776z"/>
			<polygon fill="#393939" points="142.379,11.847 142.954,10.301 142.706,10.534 			"/>
			<path fill="#393939" d="M166.134,41.885c-0.212-0.048-0.541,0.016-0.727-0.304C165.416,42.55,166.344,41.931,166.134,41.885z"/>
			<path fill="#393939" d="M160.347,23.323c-0.164-0.587-0.876-0.17-1.195-0.37C159.594,23.042,160.085,24.775,160.347,23.323z"/>
			<path fill="#393939" d="M169.085,37.715c-0.212-0.048-0.576-0.674-0.488-1.48C168.323,36.727,168.024,38.448,169.085,37.715z"/>
			<polygon fill="#393939" points="162.474,23.36 162.285,23.045 161.54,23.712 			"/>
			<path fill="#393939" d="M158.52,9.365c-0.817,1.223,1.661,2.642,0.175,3.746c2.109,1.048-0.284-1.62,1.22-1.534
				C159.012,11.24,158.468,9.835,158.52,9.365z"/>
			<path fill="#393939" d="M159.915,11.576c0.132,0.053,0.272,0.078,0.421,0.073C160.167,11.606,160.031,11.585,159.915,11.576z"/>
			<path fill="#393939" d="M173.116,18.035c-0.124,0.126-0.206,0.26-0.281,0.403C172.932,18.336,173.024,18.214,173.116,18.035z"/>
			<path fill="#393939" d="M164.611,10.326l-1.243,1.81c0.828-1.204,3.127-1.28,2.871-2.985c-0.768-0.302-1.634,0.211-1.95,0.975
				L164.611,10.326z"/>
			<path fill="#393939" d="M181.572,40.651l-0.529,0.704l0.704,0.172C181.537,41.277,181.846,40.001,181.572,40.651z"/>
			<path fill="#393939" d="M181.883,41.557l-0.136-0.03C181.778,41.567,181.822,41.583,181.883,41.557z"/>
			<path fill="#393939" d="M170.619,19.023c-0.441-0.093-0.786-0.025-1.163,0.306C169.64,19.643,170.738,19.877,170.619,19.023z"/>
			<polygon fill="#393939" points="185.418,37.992 184.503,38.325 185.508,38.156 			"/>
			<polygon fill="#393939" points="189.813,40.806 189.979,41.126 190.728,40.497 190.559,40.176 			"/>
			<path fill="#393939" d="M182.979,7.169c-0.671-0.157-1.131,1.407-0.945,1.726l1.281-0.119c-0.374-1.337-0.355,0.054-1.111-0.258
				L182.979,7.169z"/>
			<path fill="#393939" d="M221.797,38.433c-0.303,0.895-1.613,0.336-1.656-0.524c0.191-0.366,0.925-0.703,0.489-1.26l-1.124,2.185
				c-1.36-1.419,1.154-2.881,1.88-3.644c-1.426-0.327-1.897,1.118-3.418,1.067c0.444,0.211,0.711,0.771,0.934,1.253
				c0.005,1.561-1.387,0.831-2.401,0.926c0.626,0.695,0.238,1.256-0.244,1.856c-0.085,0.045-0.143,0.133-0.185,0.235l-0.164,0.215
				l0.121,0.001c-0.013,0.175,0.009,0.385,0.088,0.678c0.855-0.43,1.465,0.891,2.005,0.926c-0.464-2.55,1.865-0.535,2.571-1.296
				l0.797-0.228l0.295,0.002c0.05,0.282-0.047,0.627-0.513,1.116c0.392-0.49,1.636-0.28,1.551-1.096l2.859,0.054
				c0.084,0.108,0.168,0.242,0.226,0.427c0.106-0.154,0.128-0.284,0.121-0.413l12.449,0.484c-0.599-0.251-1.093-0.847-1.71-1.16
				c1.06-1.633-1.022-0.356-0.643-1.931c0.465-0.556,1.084-0.343,1.433,0.063c0.192-0.795-0.297-1.534-0.173-2.489
				c-1.524-1.09-2.002,2.74-3.508,2.077c0.116-0.959,0.644-1.776-0.376-1.698l0.269-0.193c-1.682,0.994-1.147-2.241-2.312,0.346
				l0.101-1.388c-0.793,1.009-2.225,0.943-3.041,1.094l0.061-0.265c-2.337,1.481-1.286,0.258-3.856,0.823l1.238-1.577
				c-0.851-0.721-1.122,1.055-1.744,0.851c0.056-0.267-0.051-1.289,0.556-1.524l-3.182,2.387
				C220.819,37.84,221.704,37.838,221.797,38.433z"/>
			<path fill="#393939" d="M217.967,36.256c-0.161-0.079-0.346-0.116-0.566-0.068C217.611,36.238,217.793,36.251,217.967,36.256z"/>
			<path fill="#393939" d="M239.351,41.449l-0.874-0.053C238.742,41.502,239.022,41.548,239.351,41.449z"/>
			<path fill="#393939" d="M213.487,39.168c0.517,0.734-0.418,0.996-0.52,1.527l1.9,0.029c0.003-0.537,0.205-1.131,0.178-1.623
				L213.487,39.168z"/>
			<path fill="#393939" d="M215.393,41.749c0.073-0.371,0.282-0.698,0.514-1.009l-1.041-0.016
				C214.865,41.127,214.973,41.495,215.393,41.749z"/>
			<polygon fill="#393939" points="215.845,13.145 216.2,13.107 216.745,12.709 			"/>
			<path fill="#393939" d="M221.301,15.656c-0.395-0.824-1.214-0.229-1.487-0.032C220.736,15.624,220.327,15.922,221.301,15.656z"/>
			<polygon fill="#393939" points="220.432,6.92 221.348,6.486 221.269,6.324 			"/>
			<path fill="#393939" d="M263.306,36.468l0.425-0.059C263.539,36.389,263.412,36.418,263.306,36.468z"/>
			<path fill="#393939" d="M238.832,37.25c1.922,1.709-1.416,1.197-0.91,3.24l1.143-0.58l-0.13,0.529l1.352-0.075
				c-0.211-0.938-0.414-1.009-0.287-1.968c1.768,0.508,0.487,1.184,1.711,2.494l2.012-0.027l-0.184,0.276
				c0.17-0.008,0.253-0.124,0.323-0.276l23.852-0.101c1.296-0.65-0.523-1.791,0.511-3.121c-1.429-0.108-3.471-1.283-3.753,0.624
				c0.07-0.262,0.209-0.783-0.062-1.032l-0.956,1.518l0.745,0.561c-0.96,1.511-20.658,0.964-21.07-0.049
				c1.562-0.424,18.009-2.374,20.053-1.187c-0.056-0.493-0.377-1.378,0.124-1.608C260.767,36.841,241.527,35.801,238.832,37.25z"/>
			<path fill="#393939" d="M280.961,38.473l-0.04,0.17C280.977,38.556,281,38.489,280.961,38.473z"/>
			<path fill="#393939" d="M280.152,38.154l-1.422,1.756l1.904,0.032l0.288-1.299c-0.206,0.315-0.944,0.918-1.143,0.38
				L280.152,38.154z"/>
			<path fill="#393939" d="M277.202,40.908c1.033-0.465,1.153-2.018,0.696-2.775c0.977-0.631,0.29,1.709,1.089,0.135
				c0.104-1.118-1.077-0.571-1.353-0.39L277.202,40.908z"/>
			<polygon fill="#393939" points="270.106,39.396 270.441,38.78 269.782,38.543 			"/>
			<path fill="#393939" d="M270.441,38.78l0.654,0.237c-0.001-0.481-0.002-0.951-0.08-1.288L270.441,38.78z"/>
			<path fill="#393939" d="M272.809,39.634c0.272,0.144,0.577,0.261,0.954,0.34L272.809,39.634z"/>
			<path fill="#393939" d="M272.082,39.166l0.003,0.204l0.724,0.264C272.547,39.487,272.315,39.331,272.082,39.166z"/>
			<path fill="#393939" d="M271.095,39.017c0.005,1.096,0.021,2.249,1.016,2.041l-0.026-1.688L271.095,39.017z"/>
			<polygon fill="#393939" points="226.913,8.754 227.751,8.18 227.673,8.007 226.835,8.583 			"/>
			<path fill="#393939" d="M231.539,9.987c0.21-0.182,0.372-0.374,0.52-0.574C231.842,9.523,231.665,9.695,231.539,9.987z"/>
			<path fill="#393939" d="M235.434,2.727c0.899,1.145-1.41,1.382,0.344,1.957c0.097,1.027-0.81,2.3-1.616,1.75
				c0.119-0.957,0.849-0.574,0.389-1.579c-0.618,1.082-0.787,0.315-0.673,1.77c-0.982,0.855-1.139,1.878-1.818,2.787
				c1.158-0.58,3.427,1.025,4.962-0.757c0.893-1.699,0.562-4.096,0.717-6.605C237.656,1.454,235.605,1.069,235.434,2.727z"/>
			<path fill="#393939" d="M234.053,0.144c-0.441-0.147-0.584-0.053-0.87,0.142C233.211,1.147,233.688,0.163,234.053,0.144z"/>
			<path fill="#393939" d="M242.977,19.644c0.108-0.35,0.924-0.734,0.802-1.363l-1.222,0.361
				C242.832,18.723,242.899,19.166,242.977,19.644z"/>
			<path fill="#393939" d="M242.022,18.797l0.535-0.156C242.429,18.602,242.264,18.639,242.022,18.797z"/>
			<path fill="#393939" d="M243.018,19.871l-0.04-0.227C242.955,19.719,242.953,19.796,243.018,19.871z"/>
			<path fill="#393939" d="M275.518,40.526c-0.088,0.685,0.463,0.325,0.741,0.146C276.057,40.595,275.789,40.341,275.518,40.526z"/>
			<path fill="#393939" d="M295.016,34.516l0.372,0.608C295.275,34.778,295.217,34.604,295.016,34.516z"/>
			<path fill="#393939" d="M304.841,16.873c0.034-0.131,0.086-0.237,0.149-0.335C304.93,16.616,304.88,16.725,304.841,16.873z"/>
			<path fill="#393939" d="M304.99,16.538c0.407-0.522,1.25,0.502,1.741-0.311l-0.087,0.258l0.74-0.418
				C306.754,16.054,305.475,15.762,304.99,16.538z"/>
		</g>
	</g>
</g>
</svg>
