<?xml version="1.0" encoding="utf-8"?>
<!-- Generator: Adobe Illustrator 17.0.0, SVG Export Plug-In . SVG Version: 6.00 Build 0)  -->
<!DOCTYPE svg PUBLIC "-//W3C//DTD SVG 1.1//EN" "http://www.w3.org/Graphics/SVG/1.1/DTD/svg11.dtd">
<svg version="1.1" id="Layer_1" xmlns="http://www.w3.org/2000/svg" xmlns:xlink="http://www.w3.org/1999/xlink" x="0px" y="0px" viewBox="0 0 410 60" enable-background="new 0 0 410 60" xml:space="preserve">
<path fill="#f0f0f0" d="M409.979,60c0-0.373,0.014-57.631,0.02-57.855c0.039-1.384-0.944-0.256-3.554-0.103
	c1.612-0.111-0.045,0.453-1.064,0.333c-0.595,0.229-1.09,0.085-1.815,0.167c-0.614-0.304-4.563-0.574-5.967,0.029
	c-1.853-0.285,0.433-0.285,0.838-0.469c-0.754-0.456-1.509,0.357-2.126,0.051c0,0,0.03-0.096,0.224-0.141
	c-2.836,0.036-4.529-0.196-7.482-0.307c-0.243,0.872-2.901,0.328-4.214,0.64c0.426-0.282-1.661-0.327-2.498-0.491L380.76,2.5
	c-1.565,0.551-2.177-0.388-4.2-0.09l0.488,0.157c-1.482,0.261-5.371-0.262-6.823-0.732C356.569,3.54,349.1,0.878,334.709,1.341
	c-0.936,0.263,0.686,0.441-0.049,0.83c-1.461,0.101-1.795,0.064-3.124,0.076c1.175,0.234,0.987-0.057,0.836,0.186l2.038-0.246
	c0.098,0.064-0.126,0.09,0.068,0.215c0.685-0.08,1.49-0.254,2.369-0.209c-1.26,0.226-1.515,0.28-3.241,0.035
	c0.132-0.088,0.257,0.474,0.711,0.418c-1.424-0.051-1.495,0.257-2.565,0.086c-1.307-0.143-0.986,0.056-1.155-0.224l-4.063-0.347
	c-2.027,0.769-4.524,0.037-5.181-0.034c0.443-0.577,2.691-0.177,3.69-0.744l-1.465-0.422l-0.087,0.461l-2.086-0.126l0.117-0.089
	c-0.247,0.181-0.503,0.36-1.036,0.2c-0.09-0.064-0.294-0.19-0.062-0.217l-1.49,0.254c0.866-0.478-1.307-0.143-1.09-0.693
	c-4.855-0.277-6.176,0.742-10.449-0.009c0.694,0.26-1.355,0.87-2.669,0.769c-0.758-0.135-0.95-0.26-0.468-0.47l-1.723,0.282
	c-2.158-0.861-4.264-0.307-7.426-0.6l0.164-0.243c-1.171,0.287-2.433,0.516-4.195,0.426l0.321-0.485
	c-2.153-0.341-1.644,1.02-4.021,0.709c0.013,0.522,1.51,0.79,1.743,1.285c-0.561-0.53-3.113-0.61-2.519-0.232
	c-2.37,0.213-1.642-0.014-1.845-0.14l-1.391,0.318c-1.664-0.025-0.533-0.684,0.082-0.983c-1.552,0.562-3.245,0.166-5.007,0.078
	l0.714-0.234l-2.319-0.095c-1.512,0.408-3.63,0.438-5.582,0.223l1.349-0.687c-1.371-0.358-0.705,0.238-1.068,0.355
	c-2.166,0.336-2.63-0.132-3.776-0.519c-3.469,0.717-6.909-1.127-9.881-0.095L257.516,0c-4.05,0.863-8.699-0.374-11.923,0.838
	c-4.935-1.425-3.236,1.275-7.761,0l0.152,0.202c-14.879-0.239-30.661-0.984-44.568-0.298l0.029-0.284
	c-22.416-0.489-44.247,0.108-66.462-0.115c-2.072,0.263-0.823,0.891-2.609,1.209c-0.776-0.025-2.53,0.009-2.539-0.341
	c1.503-0.192,0.657-0.502,1.17-0.64c-2.499,0.037-5.726-0.368-7.952,0.06l1.866,0.452c-0.867,0.19-2.229,0.062-3.014,0.039
	c0.331-0.231-0.809-0.726-0.131-0.835c-4.704,1.125-3.67-0.483-7.63-0.039c-0.789,0.961-5.746,1.749-9.01,2.434l-1.715-0.25
	c2.279,0.006-0.042-0.701,2.783-0.655c-2.358-0.277-4.546,0.136-6.776-0.018C91.861,2,91.75,2.316,90.854,2.425
	c-1.371-0.132-1.49-0.614-3.055-0.662l1.544-0.302c-1.041-0.361-1.936,0.115-2.903,0.174c-0.314-0.402-2.65-0.475-2.238-0.923
	c-2.106,0.548-2.852,0.24-5.12,0.587c2.359,0.423-0.606,0.528-0.341,0.863L81.4,2.003c-3.748-0.268,1.218-0.072,0.937-0.757
	c1.763,0.316-2.418,1.129,0.533,1.022c-3.526,0.349-4.273,0.043-7.879,0.61c2.177-0.129-0.591-0.296,0.579-0.087
	c-2.762,0.026,0,0-1.365,0.062c-1.503,0.02-2.056-0.369-3.439,0.136c-2.438-0.206,0.365-0.514-0.867-0.793
	c0.902-0.473,6.783,0.581,6.118-0.925c1.271-0.016,2.823-0.592,4.656-0.562c-1.599-0.198-3.888-0.692-5.865-0.349l-0.1,0.849
	c-1.502,0.02-1.811,0.597-2.894,0.522c0.575-0.245-0.462-0.603-1.672-0.533c0.344,0.12,0.826,0.093,0.694,0.241
	c-2.237,0.064-2.548,0.643-5.211,0.802c2.197,0.22,2.651,0.474,4.707,0.843c0.411-0.443-2.228,0.035-1.949,0.018
	c0.181-0.081-0.074-0.393-0.429-0.511L66.249,3c-2.741-0.257,0.557-0.547-1.7-0.834c-1.561-0.499-2.138,0.279-3.336-0.004
	c0.079,0.054,0.161,0.112,0.233,0.151c-0.266-0.01-0.456-0.024-0.596-0.041c0.009,0.014,0.02,0.025,0.02,0.041
	c-1.452,0.087-3.013,0.039-3.425,0.484c-0.154-0.202-1.273,0.058-1.746,0.196c-0.811,0.178-2.216-0.159-3.959-0.012
	c0.032-0.006,0.062,0,0.09-0.004c-1.811-0.086-3.222-0.309-2.832-0.55l-2.923-0.178l0.314-0.578
	c-2.663,0.157-2.398,0.495-4.224,1.091c-1.907-0.343-5.242-0.066-6.502,0.149c-0.21-0.023-0.531-0.026-1.061,0.005l1.112,0.227
	c-2.078-0.025-1.701-0.23-3.071-0.227c0.285,0.054,0.402,0.068-0.364-0.023c0.161,0.004,0,0,0.14,0c-0.14-0.025,0,0-0.214-0.019
	l-0.331,0.022c-0.227-0.01,0,0-0.294-0.022c0.069-0.061,0.319-0.03,0.626,0l-0.482,0.29c-1.662-0.614-2.549,0.349-4.324,0.134
	c0.17-0.022,0.455-0.062,0.637-0.056c-0.998-0.156-2.431-0.975-2.845-0.475c-0.23-0.064-0.582,0.037-0.925,0.161L23.53,2.842
	c0.301,0.027,0.533,0.057,0.725,0.089c-0.456,0.166-0.889,0.372-0.947,0.248l-2.55-0.103c-0.484-0.083-1.141-0.011-1.672,0.07
	l-0.433-0.24c-0.93,0.036-0.937-0.107-0.827-0.173c-3.228-0.833-4.99,0.427-8.478-0.295c-0.665,0.4,0.776,0.582,0.886,0.797
	C9.592,2.483,7.858,1.824,6.859,2.042c-1.552-0.554-6.48,0.952-5.715,0.154C-1.73,2.134,2.039,2.688,0.6,2.964L0.271,2.933
	c0.993,0.093,2.246-1.02,2.804-0.713C3.293,2.651,0.776,1.891,0,1.767V60"/>
</svg>
